{
    "$schema": "https://themost-framework.github.io/themost/models/2018/2/schema.json",
    "@id": "https://universis.io/OpenBadgeMediaObject",
    "name": "OpenBadgeMediaObject",
    "title": "OpenBadgeMediaObject",
    "hidden": false,
    "sealed": false,
    "abstract": false,
    "version": "2.0.1",
    "implements": "OpenBadgeThing",
    "fields": [
        {
            "@id": "http://schema.org/type",
            "name": "type",
            "title": "type",
            "description": "An additional type for the item, typically used for adding more specific types from external vocabularies in microdata syntax. This is a relationship between something and a class that the thing is in.",
            "type": "Text",
            "value": "javascript:return 'MediaObject';",
            "readonly": true
        },
        {
            "name": "bitrate",
            "title": "Bitrate",
            "description": "The bitrate of the media object.",
            "type": "Text"
        },
        {
            "name": "contentSize",
            "title": "Content Size",
            "description": "File size in (mega/kilo) bytes.",
            "type": "Text"
        },
        {
            "name": "contentUrl",
            "title": "Content Url",
            "description": "Actual bytes of the media object, for example the image file or video file. (previous spelling: contentURL)",
            "type": "URL"
        },
        {
            "name": "encodingFormat",
            "title": "Encoding Format",
            "description": "mp3, mpeg4, etc.",
            "type": "Text"
        },
        {
            "name": "uploadDate",
            "title": "Upload Date",
            "description": "Date when this media object was uploaded to this site.",
            "type": "Date"
        }
    ],
    "privileges": [
        {
            "mask": 15,
            "type": "global"
        },
        {
            "mask": 15,
            "type": "global",
            "account": "Administrators"
        }
    ]
}
